[gd_scene load_steps=2 format=1]

[ext_resource path="res://scenes/boxlarge.tscn" type="PackedScene" id=1]

[node name="box_large_pillar_8" type="Node2D"]

[node name="boxlarge_body" parent="." instance=ExtResource( 1 )]

transform/pos = Vector2( 31, -32 )

[node name="boxlarge_body1" parent="." instance=ExtResource( 1 )]

transform/pos = Vector2( 31, -96 )

[node name="boxlarge_body2" parent="." instance=ExtResource( 1 )]

transform/pos = Vector2( 31, -160 )

[node name="boxlarge_body3" parent="." instance=ExtResource( 1 )]

transform/pos = Vector2( 31, -224 )

[node name="boxlarge_body4" parent="." instance=ExtResource( 1 )]

transform/pos = Vector2( 31, -288 )

[node name="boxlarge_body5" parent="." instance=ExtResource( 1 )]

transform/pos = Vector2( 31, -352 )

[node name="boxlarge_body6" parent="." instance=ExtResource( 1 )]

transform/pos = Vector2( 31, -416 )

[node name="boxlarge_body7" parent="." instance=ExtResource( 1 )]

transform/pos = Vector2( 31, -480 )


