[gd_scene load_steps=4 format=1]

[ext_resource path="res://scenes/car_tire_bg.tscn" type="PackedScene" id=1]
[ext_resource path="res://sprites/car5.png" type="Texture" id=2]

[sub_resource type="ConvexPolygonShape2D" id=1]

custom_solver_bias = 0.0
points = Vector2Array( -90.0594, 122.245, -90.0594, -1.75545, -78.0594, -89.7554, -65.0594, -100.755, 61.9406, -100.755, 76.9406, -94.7554, 89.9406, -2.75545, 89.9406, 123.245 )

[node name="car_5" type="Node2D"]

[node name="tire_left" parent="." instance=ExtResource( 1 )]

transform/pos = Vector2( -51, 123 )

[node name="tire_right" parent="." instance=ExtResource( 1 )]

transform/pos = Vector2( 51, 123 )

[node name="body" type="RigidBody2D" parent="."]

input/pickable = false
shapes/0/shape = SubResource( 1 )
shapes/0/transform = Matrix32( 1, 0, 0, 1, 0, 0 )
shapes/0/trigger = false
collision/layers = 1
collision/mask = 1
mode = 0
mass = 1.0
friction = 1.0
bounce = 0.0
gravity_scale = 1.0
custom_integrator = false
continuous_cd = 0
contacts_reported = 0
contact_monitor = false
sleeping = false
can_sleep = true
velocity/linear = Vector2( 0, 0 )
velocity/angular = 0.0
damp_override/linear = -1.0
damp_override/angular = -1.0

[node name="sprite" type="Sprite" parent="body"]

texture = ExtResource( 2 )

[node name="collision" type="CollisionPolygon2D" parent="body"]

build_mode = 0
polygon = Vector2Array( -90.0594, 122.245, -90.0594, -1.75545, -78.0594, -89.7554, -65.0594, -100.755, 61.9406, -100.755, 76.9406, -94.7554, 89.9406, -2.75545, 89.9406, 123.245 )
shape_range = Vector2( 0, 0 )
trigger = false

[node name="joint_left" type="PinJoint2D" parent="."]

transform/pos = Vector2( -50, 106 )
node_a = NodePath("../tire_left")
node_b = NodePath("../body")
bias/bias = 0.0
collision/exclude_nodes = true
softness = 1.0

[node name="joint_right" type="PinJoint2D" parent="."]

transform/pos = Vector2( 50, 106 )
node_a = NodePath("../tire_right")
node_b = NodePath("../body")
bias/bias = 0.0
collision/exclude_nodes = true
softness = 1.0


