[gd_scene load_steps=5 format=1]

[ext_resource path="res://scenes/car_tire_small.tscn" type="PackedScene" id=1]
[ext_resource path="res://sprites/car0.png" type="Texture" id=2]

[sub_resource type="ConvexPolygonShape2D" id=1]

custom_solver_bias = 0.0
points = Vector2Array( 65.9155, 4.62526, 66.4155, 29.1253, 63.9155, 40.1253, -66.0845, 39.6253, -67.5845, 30.1253, -67.0845, 6.12526, -59.5845, -3.37474, -56.5845, -5.37474, 54.9155, -5.37474 )

[sub_resource type="ConvexPolygonShape2D" id=2]

custom_solver_bias = 0.0
points = Vector2Array( -34.5845, -39.8747, 27.4155, -40.3747, 40.9155, -36.8747, 54.9155, -5.37474, -56.5845, -5.37474, -42.5845, -38.8747 )

[node name="car_0" type="Node2D"]

[node name="tire_left" parent="." instance=ExtResource( 1 )]

transform/pos = Vector2( -53, 40 )

[node name="tire_right" parent="." instance=ExtResource( 1 )]

transform/pos = Vector2( 49, 40 )

[node name="body" type="RigidBody2D" parent="."]

input/pickable = false
shapes/0/shape = SubResource( 1 )
shapes/0/transform = Matrix32( 1, 0, 0, 1, 0, 0 )
shapes/0/trigger = false
shapes/1/shape = SubResource( 2 )
shapes/1/transform = Matrix32( 1, 0, 0, 1, 0, 0 )
shapes/1/trigger = false
collision/layers = 1
collision/mask = 1
mode = 0
mass = 1.0
friction = 1.0
bounce = 0.0
gravity_scale = 1.0
custom_integrator = false
continuous_cd = 0
contacts_reported = 0
contact_monitor = false
sleeping = false
can_sleep = true
velocity/linear = Vector2( 0, 0 )
velocity/angular = 0.0
damp_override/linear = -1.0
damp_override/angular = -1.0

[node name="sprite" type="Sprite" parent="body"]

texture = ExtResource( 2 )

[node name="collision" type="CollisionPolygon2D" parent="body"]

build_mode = 0
polygon = Vector2Array( -66.0845, 39.6253, -67.5845, 30.1253, -67.0845, 6.12526, -59.5845, -3.37474, -56.5845, -5.37474, -42.5845, -38.8747, -34.5845, -39.8747, 27.4155, -40.3747, 40.9155, -36.8747, 54.9155, -5.37474, 65.9155, 4.62526, 66.4155, 29.1253, 63.9155, 40.1253 )
shape_range = Vector2( 0, 1 )
trigger = false

[node name="joint_left" type="PinJoint2D" parent="."]

transform/pos = Vector2( -53, 40 )
node_a = NodePath("../tire_left")
node_b = NodePath("../body")
bias/bias = 0.0
collision/exclude_nodes = true
softness = 1.0

[node name="joint_right" type="PinJoint2D" parent="."]

transform/pos = Vector2( 49, 40 )
node_a = NodePath("../tire_right")
node_b = NodePath("../body")
bias/bias = 0.0
collision/exclude_nodes = true
softness = 1.0


