[gd_scene load_steps=6 format=1]

[ext_resource path="res://scenes/car_3.tscn" type="PackedScene" id=1]
[ext_resource path="res://scenes/construct_incline_0.tscn" type="PackedScene" id=2]
[ext_resource path="res://scenes/construct_decline_1.tscn" type="PackedScene" id=3]
[ext_resource path="res://scenes/car_11.tscn" type="PackedScene" id=4]
[ext_resource path="res://scenes/car_8.tscn" type="PackedScene" id=5]

[node name="construct_5" type="Node2D"]

[node name="car_3" parent="." instance=ExtResource( 1 )]

transform/pos = Vector2( 1745, -84 )

[node name="construct_0" parent="." instance=ExtResource( 2 )]

[node name="construct_0 2" parent="." instance=ExtResource( 3 )]

transform/pos = Vector2( 1850, 0 )

[node name="car_11" parent="." instance=ExtResource( 4 )]

transform/pos = Vector2( 1000, -94 )

[node name="car_8" parent="." instance=ExtResource( 5 )]

transform/pos = Vector2( 1430, -135 )

[node name="width" type="Position2D" parent="."]

transform/pos = Vector2( 2260, 0 )


