[gd_scene load_steps=3 format=1]

[ext_resource path="res://scenes/boxlarge.tscn" type="PackedScene" id=1]
[ext_resource path="res://scenes/bulk_0.tscn" type="PackedScene" id=2]

[node name="construct_0" type="Node2D"]

[node name="boxlarge_body" parent="." instance=ExtResource( 1 )]

transform/pos = Vector2( 364, -160 )

[node name="boxlarge_body1" parent="." instance=ExtResource( 1 )]

transform/pos = Vector2( 364, -96 )

[node name="boxlarge_body2" parent="." instance=ExtResource( 1 )]

transform/pos = Vector2( 364, -32 )

[node name="bulk_0" parent="." instance=ExtResource( 2 )]

transform/pos = Vector2( 177, -112 )
transform/rot = 30.0


