[gd_scene load_steps=5 format=1]

[ext_resource path="res://scenes/car_0.tscn" type="PackedScene" id=1]
[ext_resource path="res://scenes/car_14.tscn" type="PackedScene" id=2]
[ext_resource path="res://scenes/car_1.tscn" type="PackedScene" id=3]
[ext_resource path="res://scenes/car_3.tscn" type="PackedScene" id=4]

[node name="construct_7" type="Node2D"]

[node name="car_0" parent="." instance=ExtResource( 1 )]

transform/pos = Vector2( 503, -59 )

[node name="car_2 2" parent="." instance=ExtResource( 1 )]

transform/pos = Vector2( 1972, -59 )

[node name="car_14" parent="." instance=ExtResource( 2 )]

transform/pos = Vector2( 738, -58 )

[node name="car_15" parent="." instance=ExtResource( 2 )]

transform/pos = Vector2( 1734, -58 )

[node name="car_1" parent="." instance=ExtResource( 3 )]

transform/pos = Vector2( 980, -58 )

[node name="car_2" parent="." instance=ExtResource( 3 )]

transform/pos = Vector2( 1490, -58 )

[node name="car_3" parent="." instance=ExtResource( 4 )]

transform/pos = Vector2( 80, -83 )

[node name="car_4" parent="." instance=ExtResource( 4 )]

transform/pos = Vector2( 1240, -83 )

[node name="car_5" parent="." instance=ExtResource( 4 )]

transform/pos = Vector2( 2410, -83 )

[node name="width" type="Position2D" parent="."]

transform/pos = Vector2( 2500, 0 )


