[gd_scene load_steps=6 format=1]

[ext_resource path="res://scenes/car_3.tscn" type="PackedScene" id=1]
[ext_resource path="res://scenes/car_6.tscn" type="PackedScene" id=2]
[ext_resource path="res://scenes/pipe.tscn" type="PackedScene" id=3]
[ext_resource path="res://scenes/construct_incline_0.tscn" type="PackedScene" id=4]
[ext_resource path="res://scenes/construct_decline_0.tscn" type="PackedScene" id=5]

[node name="construct_0" type="Node2D"]

[node name="car_3" parent="." instance=ExtResource( 1 )]

transform/pos = Vector2( 875, -87 )

[node name="car_4" parent="." instance=ExtResource( 1 )]

transform/pos = Vector2( 1282, -87 )

[node name="car_6" parent="." instance=ExtResource( 2 )]

transform/pos = Vector2( 1078, -170 )

[node name="pipe" parent="." instance=ExtResource( 3 )]

transform/pos = Vector2( 1079, -402 )

[node name="construct_0" parent="." instance=ExtResource( 4 )]

[node name="construct_0 2" parent="." instance=ExtResource( 5 )]

transform/pos = Vector2( 1371, 0 )

[node name="width" type="Position2D" parent="."]

transform/pos = Vector2( 2155, 0 )


