[gd_scene load_steps=10 format=1]

[ext_resource path="res://sprites/stone6.png" type="Texture" id=1]

[sub_resource type="ConvexPolygonShape2D" id=1]

custom_solver_bias = 0.0
points = Vector2Array( 73.1121, 62.8708, -73.3879, 63.3708, -65.8879, 58.8708, 68.6121, 56.3708 )

[sub_resource type="ConvexPolygonShape2D" id=2]

custom_solver_bias = 0.0
points = Vector2Array( 39.1121, -11.1292, 49.6121, -3.62921, 62.1121, 12.8708, 68.2197, 29.9965, 70.7197, 45.2465, 68.6121, 56.3708, -65.8879, 58.8708, -67.8879, 53.8708, -63.3879, 48.8708 )

[sub_resource type="ConvexPolygonShape2D" id=3]

custom_solver_bias = 0.0
points = Vector2Array( -63.3879, 48.8708, -63.3879, 41.8708, -57.8879, 39.8708 )

[sub_resource type="ConvexPolygonShape2D" id=4]

custom_solver_bias = 0.0
points = Vector2Array( 39.1121, -11.1292, -63.3879, 48.8708, -57.8879, 39.8708 )

[sub_resource type="ConvexPolygonShape2D" id=5]

custom_solver_bias = 0.0
points = Vector2Array( 25.1121, -48.6292, 36.6121, -38.1292, 39.1121, -22.1292, 39.1121, -11.1292, -57.8879, 39.8708, -60.8879, 30.3708, -56.3879, 8.37079, -45.3879, -1.12921 )

[sub_resource type="ConvexPolygonShape2D" id=6]

custom_solver_bias = 0.0
points = Vector2Array( -56.3879, 8.37079, -50.8879, -1.12921, -45.3879, -1.12921 )

[sub_resource type="ConvexPolygonShape2D" id=7]

custom_solver_bias = 0.0
points = Vector2Array( 11.6121, -55.6292, 25.1121, -48.6292, -45.3879, -1.12921, -40.8879, -30.1292, -36.3879, -36.1292, -11.8879, -64.6292 )

[sub_resource type="ConvexPolygonShape2D" id=8]

custom_solver_bias = 0.0
points = Vector2Array( -11.8879, -64.6292, -36.3879, -36.1292, -34.3879, -48.1292, -22.3879, -61.6292 )

[node name="stone6_body" type="StaticBody2D"]

input/pickable = false
shapes/0/shape = SubResource( 1 )
shapes/0/transform = Matrix32( 1, 0, 0, 1, 0, 0 )
shapes/0/trigger = false
shapes/1/shape = SubResource( 2 )
shapes/1/transform = Matrix32( 1, 0, 0, 1, 0, 0 )
shapes/1/trigger = false
shapes/2/shape = SubResource( 3 )
shapes/2/transform = Matrix32( 1, 0, 0, 1, 0, 0 )
shapes/2/trigger = false
shapes/3/shape = SubResource( 4 )
shapes/3/transform = Matrix32( 1, 0, 0, 1, 0, 0 )
shapes/3/trigger = false
shapes/4/shape = SubResource( 5 )
shapes/4/transform = Matrix32( 1, 0, 0, 1, 0, 0 )
shapes/4/trigger = false
shapes/5/shape = SubResource( 6 )
shapes/5/transform = Matrix32( 1, 0, 0, 1, 0, 0 )
shapes/5/trigger = false
shapes/6/shape = SubResource( 7 )
shapes/6/transform = Matrix32( 1, 0, 0, 1, 0, 0 )
shapes/6/trigger = false
shapes/7/shape = SubResource( 8 )
shapes/7/transform = Matrix32( 1, 0, 0, 1, 0, 0 )
shapes/7/trigger = false
collision/layers = 1
collision/mask = 1
constant_linear_velocity = Vector2( 0, 0 )
constant_angular_velocity = 0.0
friction = 1.0
bounce = 0.0

[node name="sprite" type="Sprite" parent="."]

texture = ExtResource( 1 )

[node name="collision" type="CollisionPolygon2D" parent="."]

build_mode = 0
polygon = Vector2Array( -73.3879, 63.3708, -65.8879, 58.8708, -67.8879, 53.8708, -63.3879, 48.8708, -63.3879, 41.8708, -57.8879, 39.8708, -60.8879, 30.3708, -56.3879, 8.37079, -50.8879, -1.12921, -45.3879, -1.12921, -40.8879, -30.1292, -36.3879, -36.1292, -34.3879, -48.1292, -22.3879, -61.6292, -11.8879, -64.6292, 11.6121, -55.6292, 25.1121, -48.6292, 36.6121, -38.1292, 39.1121, -22.1292, 39.1121, -11.1292, 49.6121, -3.62921, 62.1121, 12.8708, 68.2197, 29.9965, 70.7197, 45.2465, 68.6121, 56.3708, 73.1121, 62.8708 )
shape_range = Vector2( 0, 7 )
trigger = false


