[gd_scene load_steps=6 format=1]

[ext_resource path="res://sprites/stone3.png" type="Texture" id=1]

[sub_resource type="ConvexPolygonShape2D" id=1]

custom_solver_bias = 0.0
points = Vector2Array( 57.9079, 39.8004, -50.0921, 39.8004, -60.5921, 26.3004, -64.5921, 10.3004, -55.5921, -5.69961, -46.5921, -11.9496, -38.0921, -12.1996 )

[sub_resource type="ConvexPolygonShape2D" id=2]

custom_solver_bias = 0.0
points = Vector2Array( 57.9079, 39.8004, -38.0921, -12.1996, -12.8421, -25.4496 )

[sub_resource type="ConvexPolygonShape2D" id=3]

custom_solver_bias = 0.0
points = Vector2Array( 55.4079, -6.44961, 64.1579, 10.8004, 64.1579, 32.3004, 57.9079, 39.8004, -12.8421, -25.4496, 0.157852, -32.6996, 8.65785, -33.9496, 39.6579, -27.9496 )

[sub_resource type="ConvexPolygonShape2D" id=4]

custom_solver_bias = 0.0
points = Vector2Array( 39.6579, -27.9496, 8.65785, -33.9496, 26.4079, -39.9496, 30.1579, -38.4496 )

[node name="stone3_body" type="StaticBody2D"]

input/pickable = false
shapes/0/shape = SubResource( 1 )
shapes/0/transform = Matrix32( 1, 0, 0, 1, 0, 0 )
shapes/0/trigger = false
shapes/1/shape = SubResource( 2 )
shapes/1/transform = Matrix32( 1, 0, 0, 1, 0, 0 )
shapes/1/trigger = false
shapes/2/shape = SubResource( 3 )
shapes/2/transform = Matrix32( 1, 0, 0, 1, 0, 0 )
shapes/2/trigger = false
shapes/3/shape = SubResource( 4 )
shapes/3/transform = Matrix32( 1, 0, 0, 1, 0, 0 )
shapes/3/trigger = false
collision/layers = 1
collision/mask = 1
constant_linear_velocity = Vector2( 0, 0 )
constant_angular_velocity = 0.0
friction = 1.0
bounce = 0.0

[node name="sprite" type="Sprite" parent="."]

texture = ExtResource( 1 )

[node name="collision" type="CollisionPolygon2D" parent="."]

build_mode = 0
polygon = Vector2Array( -50.0921, 39.8004, -60.5921, 26.3004, -64.5921, 10.3004, -55.5921, -5.69961, -46.5921, -11.9496, -38.0921, -12.1996, -12.8421, -25.4496, 0.157852, -32.6996, 8.65785, -33.9496, 26.4079, -39.9496, 30.1579, -38.4496, 39.6579, -27.9496, 55.4079, -6.44961, 64.1579, 10.8004, 64.1579, 32.3004, 57.9079, 39.8004 )
shape_range = Vector2( 0, 3 )
trigger = false


